S3 override for print function for DescrList objects. — print.DescrList • DescrTab2
…
#> $labels$Sepal.Width
#> [1] "Sepal.Width"
#> 
#> $labels$Petal.Length
#> [1] "Petal.Length"
#> 
#> $labels$Petal.Width
#> [1] "Petal.Width"
#> 
#> $labels$Species
#> [1] "Species"
#> 
#> 
#> $tibble
#> # A tibble: 32 x 4
#>    Variables    Total        p        Test                         
#>    <chr>        <chr>        <chr>    <chr>                        
#>  1 Sepal.Length ""           ""       ""                           
#>  2 N            "150"        "<0.001" "Student's one-sample t-test"
#>  3 mean         "5.8"        ""       ""                           
#>  4 sd           "0.83"       ""       ""                           
#>  5 median       "5.8"        ""       ""                           
#>  6 Q1 - Q3      "5.1 -- 6.4" ""       ""                           
#>  7 min - max    "4.3 -- 7.9" ""       ""                           
#>  8 Sepal.Width  ""           ""       ""                           
#>  9 N            "150"        "<0.001" "Student's one-sample t-test"
#> 10 mean         "3.1"        ""       ""                           
#> # ... with 22 more rows
…
